<svg width="98" height="42" viewBox="0 0 98 42" fill="none" xmlns="http://www.w3.org/2000/svg">
<g style="mix-blend-mode:overlay" opacity="0.8">
<path d="M34.8355 1.2325C15.2399 3.79256 1 11.525 1 20.6663C1 31.8963 22.4903 41 49 41C75.5097 41 97 31.8963 97 20.6663C97 11.2287 81.8221 3.29279 61.2426 1" stroke="url(#paint0_angular_29_1269)" stroke-width="0.661855" stroke-linecap="round"/>
</g>
<defs>
<radialGradient id="paint0_angular_29_1269" cx="0" cy="0" r="1" gradientUnits="userSpaceOnUse" gradientTransform="translate(49.6925 22.7427) scale(51.1439 21.1597)">
<stop offset="0.34375" stop-color="white"/>
<stop offset="0.619792" stop-color="white" stop-opacity="0"/>
<stop offset="0.885417" stop-color="white" stop-opacity="0.4"/>
<stop offset="1" stop-color="white" stop-opacity="0"/>
</radialGradient>
</defs>
</svg>
