<svg xmlns="http://www.w3.org/2000/svg" width="98" height="42" viewBox="0 0 98 42" fill="none">
  <g style="mix-blend-mode:overlay">
    <path d="M63.003 1C82.6819 3.55208 97 11.3431 97 20.5582C97 31.8479 75.5097 41 49 41C22.4903 41 1 31.8479 1 20.5582C1 11.6458 14.3927 4.06557 33.075 1.26838" stroke="url(#paint0_angular_29_1270)" stroke-width="0.661855" stroke-linecap="round"/>
  </g>
  <defs>
    <radialGradient id="paint0_angular_29_1270" cx="0" cy="0" r="1" gradientUnits="userSpaceOnUse" gradientTransform="translate(49.6925 22.7427) scale(51.1439 21.1597)">
      <stop offset="0.34375" stop-color="white"/>
      <stop offset="0.619792" stop-color="white" stop-opacity="0"/>
      <stop offset="0.885417" stop-color="white" stop-opacity="0.4"/>
      <stop offset="1" stop-color="white" stop-opacity="0"/>
    </radialGradient>
  </defs>
</svg>